<?xml version="1.0" encoding="utf-8"?>
<!-- Generator: Adobe Illustrator 23.0.1, SVG Export Plug-In . SVG Version: 6.00 Build 0)  -->
<svg version="1.0" id="Layer_1" xmlns="http://www.w3.org/2000/svg" xmlns:xlink="http://www.w3.org/1999/xlink" x="0px" y="0px"
	 viewBox="0 0 500 500" style="enable-background:new 0 0 500 500;" xml:space="preserve">
<g>
	<path d="M355.3,231.4c2.8,67.6-8.2,133.5-28.3,197.9c-2.2,7.1-9.8,15.7-16.5,17.5C291.2,452,271,454.4,251,457
		c-3,0.4-7.5-3.5-9.9-6.6c-8.4-10.5-20.8-12.2-30.4-3.4c-17.9,16.3-37.8,14.8-49.4-6.7c-9-16.7-14.9-35.5-19.7-54
		c-12.4-48.2-21.8-97-18.5-147.3c4-61.5,22.2-118,60.5-167c5.8-7.4,8.6-14.7,8.3-24c-0.4-12.1,4-17,15.8-18
		c8.1-0.7,16.3-0.1,24.4,0.1c8.7,0.3,13.7,5.6,13.4,13.7c-0.7,21.1,11.3,36.5,23.4,51.1c21.4,25.8,46.2,48.1,75.2,65.3
		c7.2,4.3,11.2,9.8,11.3,18C355.4,196.1,355.3,213.7,355.3,231.4z M151,234.1c2,2,5.1,7.2,9.6,9c7,2.9,13.2-2.1,16.1-11.5
		c8.7-27.6,17.4-55.3,26.1-82.9c3.1-10,0.8-16.5-7-19.5c-8-3-14.2-0.2-18.7,9.3C163.3,167.7,155.8,198.6,151,234.1z M299.3,266.5
		c-11.2-10.8-21.8-21.4-32.9-31.4c-2.5-2.3-7-4.7-9.9-4c-9.8,2.3-19.8,4.7-28.7,9.3c-13.9,7.2-14.9,22.5-1.4,30.4
		c9.6,5.6,21.2,7.7,32.1,10.6c2,0.5,4.9-2.2,7.4-3.4c-2.1-1.9-3.9-4.5-6.4-5.6c-6.4-3.1-13.6-4.7-19.5-8.5
		c-5.8-3.7-6.6-9.5-1.1-14.9c7.6-7.5,14.7-8.4,19.6-2.2c7.7,9.8,15,19.8,23,29.3c1.9,2.3,6.3,4.9,8.6,4.2c9-2.6,18.5-5,26.1-10.1
		c13.7-9.1,12.2-22.2-2.4-30c-2.1-1.1-6.6-1.3-7.4-0.1c-1.7,2.3-3.1,6.9-1.9,8.9C310.2,257.8,306.3,262.6,299.3,266.5z"/>
</g>
</svg>
